{
  "name": "Historia Socioeconómica de México",
  "image": "portada.jpg",
  "temas": [
    {
      "tema": "Introducción",
      "subtemas": [     
        {
          "tema": "UAC III",
          "url": "index.html"
        },
        {
          "tema": "Desarrollo del aprendizaje",
          "url": "multidisciplinariedad.html"
        },
                {
          "tema": "Evaluación diagnóstica",
          "url": "evaluacion_diagnostica.html"
        },
                {
          "tema": "Situación de aprendizaje",
          "url": "situacion_de_aprendizaje.html"
        },
        {
          "tema": "Situación en contexto",
          "url": "situacion_en_contexto.html"
        }
      ]
    },
    {
      "tema": "Desafíos actuales del país",
      "subtemas": [
        {
          "tema": "Desafíos actuales del país",
          "url": "tema1.0.0.html"
        },
        {
          "tema": "Corrupción",
          "url": "tema1.1.0.html"
        },
        {
          "tema": "Actividad 1",
          "url": "tema1.1.0A1.html"
        },
        {
          "tema": "Crimen organizado",
          "url": "tema1.2.0.html"
        },
        {
          "tema": "Actividad 2",
          "url": "tema1.2.0A2.html"
        },
        {
          "tema": "Actividad DHS",
          "url": "tema1.2.0A2_dhs.html"
        },
        {
          "tema": "Desigualdades",
          "url": "tema1.3.0.html"
        },
        {
          "tema": "Actividad 3",
          "url": "tema1.3.0A3.html"
        },
        {
          "tema": "Fomento a la lectura",
          "url": "tema1.3.0A3_lectura.html"
        }
      ]
    },
    {
      "tema": "Los nuevos desafíos mundiales",
      "subtemas": [
        {
          "tema": "Los nuevos desafíos mundiales",
          "url": "tema2.0.0.html"
        },
        {
          "tema": "Problemas ecológicos",
          "url": "tema2.1.0.html"
        },
        {
          "tema": "Actividad 4",
          "url": "tema2.1.0A4.html"
        }

      ]
    },
    {
      "tema": "Conflictos bélicos en la actualidad",
      "subtemas": [
        {
          "tema": "Conflictos bélicos en la actualidad",
          "url": "tema3.0.0.html"
        },
        {
          "tema": "Actividad 5",
          "url": "tema3.0.0A5.html"
        },
        {
          "tema": "Seguridad interna",
          "url": "tema3.1.0.html"
        },
        {
          "tema": "Actividad 6",
          "url": "tema3.1.0A6.html"
        },
        {
          "tema": "Oriéntate",
          "url": "tema3.1.0A6_orientate.html"
        }

      ]
    },
    {
      "tema": "¿Qué es la sociedad del conocimiento, y cómo se vinculan la educación y el desarrollo de un país?",
      "subtemas": [
        {
          "tema": "¿Qué es la sociedad del conocimiento, y cómo se vinculan la educación y el desarrollo de un país?",
          "url": "tema4.0.0.html"
        },
        {
          "tema": "De la información al conocimiento",
          "url": "tema4.1.0.html"
        },
        {
          "tema": "Educación y desarrollo nacional",
          "url": "tema4.2.0.html"
        },
        {
          "tema": "Actividad 7",
          "url": "tema4.2.0A7.html"
        },
        {
          "tema": "Evaluación de situación de aprendizaje",
          "url": "tema4.2.0A7_situacion_de_aprendizaje.html"
        },
        {
          "tema": "Evaluación objetiva",
          "url": "tema4.2.1_evaluacion_objetiva.html"
        },
        {
          "tema": "Metacognición",
          "url": "tema4.2.1_metacognicion.html"
        },
        {
          "tema": "Evaluación de saberes",
          "url": "tema4.2.2_evaluacion_de_saberes.html"
        },
        {
          "tema": "Prueba tipo PLANEA",
          "url": "tema4.2.2_prueba_planea.html"
        },
        {
          "tema": "Bibliografía",
          "url": "bibliografia.html"
        }
      ]
    }
  ]
}